{
  "project_info": {
    "project_number": "312922442297",
    "firebase_url": "https://jugar-c401a.firebaseio.com",
    "project_id": "jugar-c401a",
    "storage_bucket": "jugar-c401a.appspot.com"
  },
  "client": [
    {
      "client_info": {
        "mobilesdk_app_id": "1:312922442297:android:b099db5fa1030c41",
        "android_client_info": {
          "package_name": "facci.kleber.delgado.jugar"
        }
      },
      "oauth_client": [
        {
          "client_id": "312922442297-2c5js0h8rcpir92gq02n7rlq3ggp4258.apps.googleusercontent.com",
          "client_type": 1,
          "android_info": {
            "package_name": "facci.kleber.delgado.jugar",
            "certificate_hash": "5680617ec77406ebdf427986eab75cd3775a4d99"
          }
        },
        {
          "client_id": "312922442297-cj4s0i5728m6bn0ab25p0kerreglnjhb.apps.googleusercontent.com",
          "client_type": 3
        }
      ],
      "api_key": [
        {
          "current_key": "AIzaSyAy8pacZNlYbc6RJsERpZtyNEJ580EodlE"
        }
      ],
      "services": {
        "analytics_service": {
          "status": 1
        },
        "appinvite_service": {
          "status": 2,
          "other_platform_oauth_client": [
            {
              "client_id": "312922442297-cj4s0i5728m6bn0ab25p0kerreglnjhb.apps.googleusercontent.com",
              "client_type": 3
            }
          ]
        },
        "ads_service": {
          "status": 2
        }
      }
    }
  ],
  "configuration_version": "1"
}